tester/results.log
******************************************************************************** 
**** Running test image1... 
******************************************************************************** 
ISim P.20131013 (signature 0x7708f090)
WARNING: A WEBPACK license was found.
WARNING: Please use Xilinx License Configuration Manager to check out a full ISim license.
WARNING: ISim will run in Lite mode. Please refer to the ISim documentation for more information on the differences between the Lite and the Full version.
This is a Lite version of ISim.
Time resolution is 1 ps
Simulator is doing circuit initialization process.
Finished circuit initialization process.
--------------------------------------------------------------------------------
test image1 - mirror transformation done in 12292 cycles
--------------------------------------------------------------------------------
--------------------------------------------------------------------------------
test image1 - grayscale transformation done in 8193 cycles
--------------------------------------------------------------------------------
--------------------------------------------------------------------------------
test image1 - sharpen transformation done in 60677 cycles
--------------------------------------------------------------------------------
	error at ( 0,  2), found R:  0 G:255 B:  0
	                expected R:  0 G:  4 B:  0
	error at ( 0,  3), found R:  0 G:144 B:  0
	                expected R:  0 G:234 B:  0
	error at ( 0,  4), found R:  0 G:109 B:  0
	                expected R:  0 G:188 B:  0
	error at ( 0,  5), found R:  0 G: 63 B:  0
	                expected R:  0 G:143 B:  0
	error at ( 0,  8), found R:  0 G:255 B:  0
	                expected R:  0 G:  0 B:  0
	error at ( 0, 14), found R:  0 G:255 B:  0
	                expected R:  0 G:  0 B:  0
	error at ( 0, 15), found R:  0 G:103 B:  0
	                expected R:  0 G:196 B:  0
	error at ( 0, 18), found R:  0 G:255 B:  0
	                expected R:  0 G:  0 B:  0
	error at ( 0, 24), found R:  0 G:143 B:  0
	                expected R:  0 G:145 B:  0
	error at ( 0, 31), found R:  0 G: 47 B:  0
	                expected R:  0 G: 84 B:  0
	error at ( 0, 33), found R:  0 G:133 B:  0
	                expected R:  0 G:137 B:  0
	error at ( 0, 36), found R:  0 G: 71 B:  0
	                expected R:  0 G: 85 B:  0
	error at ( 0, 43), found R:  0 G:127 B:  0
	                expected R:  0 G:136 B:  0
	error at ( 0, 45), found R:  0 G: 62 B:  0
	                expected R:  0 G: 60 B:  0
	error at ( 0, 47), found R:  0 G:255 B:  0
	                expected R:  0 G:  0 B:  0
	error at ( 0, 52), found R:  0 G:172 B:  0
	                expected R:  0 G:228 B:  0
	error at ( 0, 55), found R:  0 G:255 B:  0
	                expected R:  0 G:  0 B:  0
	error at ( 1,  0), found R:  0 G:179 B:  0
	                expected R:  0 G:209 B:  0
	error at ( 1,  2), found R:  0 G:255 B:  0
	                expected R:  0 G:  0 B:  0
	error at ( 1,  3), found R:  0 G:255 B:  0
	                expected R:  0 G:  0 B:  0
	error at ( 1,  5), found R:  0 G: 86 B:  0
	                expected R:  0 G:255 B:  0
	error at ( 1,  6), found R:  0 G:255 B:  0
	                expected R:  0 G:  0 B:  0
	error at ( 1,  7), found R:  0 G:140 B:  0
	                expected R:  0 G:255 B:  0
	error at ( 1,  8), found R:  0 G: 38 B:  0
	                expected R:  0 G:104 B:  0
	error at ( 1,  9), found R:  0 G:255 B:  0
	                expected R:  0 G:  0 B:  0
	error at ( 1, 10), found R:  0 G:185 B:  0
	                expected R:  0 G:255 B:  0
	error at ( 1, 11), found R:  0 G:105 B:  0
	                expected R:  0 G:145 B:  0
	error at ( 1, 12), found R:  0 G:255 B:  0
	                expected R:  0 G:  0 B:  0
	error at ( 1, 14), found R:  0 G:255 B:  0
	                expected R:  0 G:  0 B:  0
	error at ( 1, 16), found R:  0 G:192 B:  0
	                expected R:  0 G:249 B:  0
	error at ( 1, 17), found R:  0 G:255 B:  0
	                expected R:  0 G: 78 B:  0
	error at ( 1, 18), found R:  0 G:255 B:  0
	                expected R:  0 G:  0 B:  0
	error at ( 1, 20), found R:  0 G:255 B:  0
	                expected R:  0 G:  0 B:  0
	.
	.
	.
Stopped at time : 1098405 ns : File "C:/Users/AMY/Desktop/tester/build/bin/tester/tester.v" Line 355
******************************************************************************** 
**** Running test image2... 
******************************************************************************** 
ISim P.20131013 (signature 0x7708f090)
WARNING: A WEBPACK license was found.
WARNING: Please use Xilinx License Configuration Manager to check out a full ISim license.
WARNING: ISim will run in Lite mode. Please refer to the ISim documentation for more information on the differences between the Lite and the Full version.
This is a Lite version of ISim.
Time resolution is 1 ps
Simulator is doing circuit initialization process.
Finished circuit initialization process.
--------------------------------------------------------------------------------
test image2 - mirror transformation done in 12292 cycles
--------------------------------------------------------------------------------
--------------------------------------------------------------------------------
test image2 - grayscale transformation done in 8193 cycles
--------------------------------------------------------------------------------
--------------------------------------------------------------------------------
test image2 - sharpen transformation done in 60677 cycles
--------------------------------------------------------------------------------
	error at ( 0, 31), found R:  0 G:255 B:  0
	                expected R:  0 G:  0 B:  0
	error at ( 0, 34), found R:  0 G:255 B:  0
	                expected R:  0 G:170 B:  0
	error at ( 0, 41), found R:  0 G:255 B:  0
	                expected R:  0 G:153 B:  0
	error at ( 0, 46), found R:  0 G:255 B:  0
	                expected R:  0 G:  0 B:  0
	error at ( 0, 47), found R:  0 G:209 B:  0
	                expected R:  0 G:166 B:  0
	error at ( 0, 48), found R:  0 G:255 B:  0
	                expected R:  0 G:238 B:  0
	error at ( 0, 50), found R:  0 G: 94 B:  0
	                expected R:  0 G:  0 B:  0
	error at ( 0, 52), found R:  0 G:255 B:  0
	                expected R:  0 G:252 B:  0
	error at ( 0, 56), found R:  0 G:255 B:  0
	                expected R:  0 G:  0 B:  0
	error at ( 0, 57), found R:  0 G:255 B:  0
	                expected R:  0 G:234 B:  0
	error at ( 0, 60), found R:  0 G:255 B:  0
	                expected R:  0 G:205 B:  0
	error at ( 1, 31), found R:  0 G:255 B:  0
	                expected R:  0 G:  0 B:  0
	error at ( 1, 34), found R:  0 G:255 B:  0
	                expected R:  0 G:  0 B:  0
	error at ( 1, 35), found R:  0 G:255 B:  0
	                expected R:  0 G:235 B:  0
	error at ( 1, 36), found R:  0 G:255 B:  0
	                expected R:  0 G:123 B:  0
	error at ( 1, 38), found R:  0 G:255 B:  0
	                expected R:  0 G:214 B:  0
	error at ( 1, 39), found R:  0 G:255 B:  0
	                expected R:  0 G:  0 B:  0
	error at ( 1, 40), found R:  0 G:255 B:  0
	                expected R:  0 G: 48 B:  0
	error at ( 1, 41), found R:  0 G:255 B:  0
	                expected R:  0 G: 14 B:  0
	error at ( 1, 42), found R:  0 G:174 B:  0
	                expected R:  0 G:  0 B:  0
	error at ( 1, 43), found R:  0 G:255 B:  0
	                expected R:  0 G:138 B:  0
	error at ( 1, 44), found R:  0 G:255 B:  0
	                expected R:  0 G: 12 B:  0
	error at ( 1, 45), found R:  0 G: 60 B:  0
	                expected R:  0 G:  0 B:  0
	error at ( 1, 47), found R:  0 G:202 B:  0
	                expected R:  0 G:  0 B:  0
	error at ( 1, 48), found R:  0 G:117 B:  0
	                expected R:  0 G:  0 B:  0
	error at ( 1, 51), found R:  0 G:255 B:  0
	                expected R:  0 G:  0 B:  0
	error at ( 1, 52), found R:  0 G:255 B:  0
	                expected R:  0 G:  0 B:  0
	error at ( 1, 54), found R:  0 G:255 B:  0
	                expected R:  0 G:  0 B:  0
	error at ( 1, 56), found R:  0 G:212 B:  0
	                expected R:  0 G:  0 B:  0
	error at ( 1, 58), found R:  0 G:253 B:  0
	                expected R:  0 G:  0 B:  0
	error at ( 1, 59), found R:  0 G:255 B:  0
	                expected R:  0 G:  0 B:  0
	error at ( 1, 61), found R:  0 G:255 B:  0
	                expected R:  0 G:  0 B:  0
	error at ( 2, 31), found R:  0 G:255 B:  0
	                expected R:  0 G:  0 B:  0
	.
	.
	.
Stopped at time : 1098405 ns : File "C:/Users/AMY/Desktop/tester/build/bin/tester/tester.v" Line 355
******************************************************************************** 
**** Running test image3... 
******************************************************************************** 
ISim P.20131013 (signature 0x7708f090)
WARNING: A WEBPACK license was found.
WARNING: Please use Xilinx License Configuration Manager to check out a full ISim license.
WARNING: ISim will run in Lite mode. Please refer to the ISim documentation for more information on the differences between the Lite and the Full version.
This is a Lite version of ISim.
Time resolution is 1 ps
Simulator is doing circuit initialization process.
Finished circuit initialization process.
--------------------------------------------------------------------------------
test image3 - mirror transformation done in 12292 cycles
--------------------------------------------------------------------------------
--------------------------------------------------------------------------------
test image3 - grayscale transformation done in 8193 cycles
--------------------------------------------------------------------------------
--------------------------------------------------------------------------------
test image3 - sharpen transformation done in 60677 cycles
--------------------------------------------------------------------------------
	error at ( 0,  6), found R:  0 G:255 B:  0
	                expected R:  0 G:119 B:  0
	error at ( 0, 13), found R:  0 G:255 B:  0
	                expected R:  0 G:228 B:  0
	error at ( 0, 19), found R:  0 G:103 B:  0
	                expected R:  0 G:  0 B:  0
	error at ( 0, 25), found R:  0 G:255 B:  0
	                expected R:  0 G:144 B:  0
	error at ( 0, 32), found R:  0 G: 75 B:  0
	                expected R:  0 G:  0 B:  0
	error at ( 0, 37), found R:  0 G:255 B:  0
	                expected R:  0 G:230 B:  0
	error at ( 0, 39), found R:  0 G: 44 B:  0
	                expected R:  0 G:  0 B:  0
	error at ( 0, 43), found R:  0 G:255 B:  0
	                expected R:  0 G:143 B:  0
	error at ( 0, 46), found R:  0 G:191 B:  0
	                expected R:  0 G:  0 B:  0
	error at ( 0, 47), found R:  0 G:255 B:  0
	                expected R:  0 G:246 B:  0
	error at ( 0, 48), found R:  0 G: 19 B:  0
	                expected R:  0 G:  0 B:  0
	error at ( 0, 50), found R:  0 G: 67 B:  0
	                expected R:  0 G:  0 B:  0
	error at ( 0, 55), found R:  0 G: 84 B:  0
	                expected R:  0 G:  0 B:  0
	error at ( 0, 57), found R:  0 G:183 B:  0
	                expected R:  0 G: 17 B:  0
	error at ( 0, 59), found R:  0 G:255 B:  0
	                expected R:  0 G:206 B:  0
	error at ( 1,  1), found R:  0 G:255 B:  0
	                expected R:  0 G:158 B:  0
	error at ( 1,  2), found R:  0 G:255 B:  0
	                expected R:  0 G:  2 B:  0
	error at ( 1,  3), found R:  0 G:255 B:  0
	                expected R:  0 G:182 B:  0
	error at ( 1,  4), found R:  0 G:255 B:  0
	                expected R:  0 G:198 B:  0
	error at ( 1,  6), found R:  0 G:180 B:  0
	                expected R:  0 G:  0 B:  0
	error at ( 1,  7), found R:  0 G:255 B:  0
	                expected R:  0 G:  0 B:  0
	error at ( 1,  8), found R:  0 G:255 B:  0
	                expected R:  0 G:  0 B:  0
	error at ( 1, 10), found R:  0 G:255 B:  0
	                expected R:  0 G:  0 B:  0
	error at ( 1, 14), found R:  0 G:255 B:  0
	                expected R:  0 G:136 B:  0
	error at ( 1, 15), found R:  0 G:255 B:  0
	                expected R:  0 G:  0 B:  0
	error at ( 1, 16), found R:  0 G:255 B:  0
	                expected R:  0 G:242 B:  0
	error at ( 1, 17), found R:  0 G:255 B:  0
	                expected R:  0 G:176 B:  0
	error at ( 1, 19), found R:  0 G:255 B:  0
	                expected R:  0 G:  0 B:  0
	error at ( 1, 20), found R:  0 G:255 B:  0
	                expected R:  0 G:  0 B:  0
	error at ( 1, 21), found R:  0 G:255 B:  0
	                expected R:  0 G:  0 B:  0
	error at ( 1, 22), found R:  0 G:170 B:  0
	                expected R:  0 G:  0 B:  0
	error at ( 1, 23), found R:  0 G:255 B:  0
	                expected R:  0 G: 61 B:  0
	error at ( 1, 24), found R:  0 G:255 B:  0
	                expected R:  0 G:152 B:  0
	.
	.
	.
Stopped at time : 1098405 ns : File "C:/Users/AMY/Desktop/tester/build/bin/tester/tester.v" Line 355
******************************************************************************** 
**** Running test lena... 
******************************************************************************** 
ISim P.20131013 (signature 0x7708f090)
WARNING: A WEBPACK license was found.
WARNING: Please use Xilinx License Configuration Manager to check out a full ISim license.
WARNING: ISim will run in Lite mode. Please refer to the ISim documentation for more information on the differences between the Lite and the Full version.
This is a Lite version of ISim.
Time resolution is 1 ps
Simulator is doing circuit initialization process.
Finished circuit initialization process.
--------------------------------------------------------------------------------
test lena - mirror transformation done in 12292 cycles
test lena - grayscale transformation done in 8193 cycles
test lena - sharpen transformation done in 60677 cycles
--------------------------------------------------------------------------------
	error at ( 0,  1), found R:  0 G: 55 B:  0
	                expected R:  0 G:147 B:  0
	error at ( 0,  8), found R:  0 G: 67 B:  0
	                expected R:  0 G: 63 B:  0
	error at ( 0,  9), found R:  0 G:104 B:  0
	                expected R:  0 G:191 B:  0
	error at ( 0, 10), found R:  0 G:210 B:  0
	                expected R:  0 G:255 B:  0
	error at ( 0, 12), found R:  0 G:239 B:  0
	                expected R:  0 G:255 B:  0
	error at ( 0, 14), found R:  0 G:186 B:  0
	                expected R:  0 G:247 B:  0
	error at ( 0, 18), found R:  0 G:162 B:  0
	                expected R:  0 G:228 B:  0
	error at ( 0, 19), found R:  0 G:159 B:  0
	                expected R:  0 G:237 B:  0
	error at ( 0, 48), found R:  0 G:255 B:  0
	                expected R:  0 G:245 B:  0
	error at ( 0, 61), found R:  0 G: 69 B:  0
	                expected R:  0 G:110 B:  0
	error at ( 0, 62), found R:  0 G:123 B:  0
	                expected R:  0 G:207 B:  0
	error at ( 1,  0), found R:  0 G:255 B:  0
	                expected R:  0 G:127 B:  0
	error at ( 1,  1), found R:  0 G:255 B:  0
	                expected R:  0 G:  0 B:  0
	error at ( 1,  3), found R:  0 G:255 B:  0
	                expected R:  0 G:174 B:  0
	error at ( 1,  4), found R:  0 G: 71 B:  0
	                expected R:  0 G:  0 B:  0
	error at ( 1,  8), found R:  0 G:255 B:  0
	                expected R:  0 G:  0 B:  0
	error at ( 1,  9), found R:  0 G:255 B:  0
	                expected R:  0 G:  0 B:  0
	error at ( 1, 10), found R:  0 G:255 B:  0
	                expected R:  0 G: 54 B:  0
	error at ( 1, 11), found R:  0 G:255 B:  0
	                expected R:  0 G: 92 B:  0
	error at ( 1, 12), found R:  0 G:255 B:  0
	                expected R:  0 G: 13 B:  0
	error at ( 1, 13), found R:  0 G:255 B:  0
	                expected R:  0 G: 80 B:  0
	error at ( 1, 14), found R:  0 G:255 B:  0
	                expected R:  0 G:  0 B:  0
	error at ( 1, 15), found R:  0 G: 27 B:  0
	                expected R:  0 G:255 B:  0
	error at ( 1, 16), found R:  0 G:255 B:  0
	                expected R:  0 G: 39 B:  0
	error at ( 1, 17), found R:  0 G:255 B:  0
	                expected R:  0 G: 58 B:  0
	error at ( 1, 18), found R:  0 G:255 B:  0
	                expected R:  0 G: 43 B:  0
	error at ( 1, 19), found R:  0 G:255 B:  0
	                expected R:  0 G:161 B:  0
	error at ( 1, 20), found R:  0 G:255 B:  0
	                expected R:  0 G:171 B:  0
	error at ( 1, 21), found R:  0 G:255 B:  0
	                expected R:  0 G:  0 B:  0
	error at ( 1, 22), found R:  0 G:255 B:  0
	                expected R:  0 G:  0 B:  0
	error at ( 1, 23), found R:  0 G:255 B:  0
	                expected R:  0 G:116 B:  0
	error at ( 1, 24), found R:  0 G:174 B:  0
	                expected R:  0 G:255 B:  0
	error at ( 1, 25), found R:  0 G:230 B:  0
	                expected R:  0 G:255 B:  0
	.
	.
	.
Stopped at time : 934545 ns : File "C:/Users/AMY/Desktop/tester/build/bin/tester/tester.v" Line 355
